%YAML 1.1
%TAG !u! tag:unity3d.com,2011:
--- !u!1001 &3606447707002981387
PrefabInstance:
  m_ObjectHideFlags: 0
  serializedVersion: 2
  m_Modification:
    m_TransformParent: {fileID: 0}
    m_Modifications:
    - target: {fileID: 3606447707002510395, guid: a30acc021b247fd40971dc47701c8a27, type: 3}
      propertyPath: m_RootOrder
      value: 0
      objectReference: {fileID: 0}
    - target: {fileID: 3606447707002510395, guid: a30acc021b247fd40971dc47701c8a27, type: 3}
      propertyPath: m_LocalPosition.x
      value: -0.21
      objectReference: {fileID: 0}
    - target: {fileID: 3606447707002510395, guid: a30acc021b247fd40971dc47701c8a27, type: 3}
      propertyPath: m_LocalPosition.y
      value: 1.4
      objectReference: {fileID: 0}
    - target: {fileID: 3606447707002510395, guid: a30acc021b247fd40971dc47701c8a27, type: 3}
      propertyPath: m_LocalPosition.z
      value: 1.95
      objectReference: {fileID: 0}
    - target: {fileID: 3606447707002510395, guid: a30acc021b247fd40971dc47701c8a27, type: 3}
      propertyPath: m_LocalRotation.w
      value: 1
      objectReference: {fileID: 0}
    - target: {fileID: 3606447707002510395, guid: a30acc021b247fd40971dc47701c8a27, type: 3}
      propertyPath: m_LocalRotation.x
      value: 0
      objectReference: {fileID: 0}
    - target: {fileID: 3606447707002510395, guid: a30acc021b247fd40971dc47701c8a27, type: 3}
      propertyPath: m_LocalRotation.y
      value: 0
      objectReference: {fileID: 0}
    - target: {fileID: 3606447707002510395, guid: a30acc021b247fd40971dc47701c8a27, type: 3}
      propertyPath: m_LocalRotation.z
      value: 0
      objectReference: {fileID: 0}
    - target: {fileID: 3606447707002510395, guid: a30acc021b247fd40971dc47701c8a27, type: 3}
      propertyPath: m_LocalEulerAnglesHint.x
      value: 0
      objectReference: {fileID: 0}
    - target: {fileID: 3606447707002510395, guid: a30acc021b247fd40971dc47701c8a27, type: 3}
      propertyPath: m_LocalEulerAnglesHint.y
      value: 0
      objectReference: {fileID: 0}
    - target: {fileID: 3606447707002510395, guid: a30acc021b247fd40971dc47701c8a27, type: 3}
      propertyPath: m_LocalEulerAnglesHint.z
      value: 0
      objectReference: {fileID: 0}
    - target: {fileID: 3606447707002892331, guid: a30acc021b247fd40971dc47701c8a27, type: 3}
      propertyPath: m_Name
      value: bulletHole
      objectReference: {fileID: 0}
    m_RemovedComponents: []
  m_SourcePrefab: {fileID: 100100000, guid: a30acc021b247fd40971dc47701c8a27, type: 3}
--- !u!1 &179232 stripped
GameObject:
  m_CorrespondingSourceObject: {fileID: 3606447707002892331, guid: a30acc021b247fd40971dc47701c8a27, type: 3}
  m_PrefabInstance: {fileID: 3606447707002981387}
  m_PrefabAsset: {fileID: 0}
--- !u!54 &3750658637159569440
Rigidbody:
  m_ObjectHideFlags: 0
  m_CorrespondingSourceObject: {fileID: 0}
  m_PrefabInstance: {fileID: 0}
  m_PrefabAsset: {fileID: 0}
  m_GameObject: {fileID: 179232}
  serializedVersion: 2
  m_Mass: 1
  m_Drag: 0
  m_AngularDrag: 0.05
  m_UseGravity: 1
  m_IsKinematic: 0
  m_Interpolate: 0
  m_Constraints: 0
  m_CollisionDetection: 0
